ALX 020
BLR 020
BRD 020
BSN 020
CMN 004
CMY 020
CNL 020
DSM 020
FAN 020
GUL 020
IBK 021
JRI 020
KEN 021
KRN 020
LAR 021
NCL 020
NSH 020
RMK 021
RSD 020
RYU 021
URN 021
VEG 020
Z20 020
Z21 021
Z22 020
Z23 021
Z24 021
Z25 020
Z26 000
Z27 000
ZGF 020